%YAML 1.1
%TAG !u! tag:unity3d.com,2011:
--- !u!162 &1
EditorUserSettings:
  m_ObjectHideFlags: 0
  serializedVersion: 4
  m_ConfigSettings:
    RecentlyUsedScenePath-0:
      value: 2242470311464679181a182702255309565f392425252724282d547cc6e53937a2d435ece93f70183c0fe003262b152bf7180f07ef451f05181ae4
      flags: 0
    RecentlyUsedScenePath-1:
      value: 224247031146466b010f022704637a110403106a0a3a2335620d183eedae2136ebf32f
      flags: 0
    RecentlyUsedScenePath-2:
      value: 22424703114646680c031c2e15306d1505180d382f2d357f1e2a183de7f37b68afca37e0e9742a323016f6
      flags: 0
    RecentlyUsedScenePath-3:
      value: 224247031146467a3f5f42371e2a4b09
      flags: 0
    RecentlyUsedScenePath-4:
      value: 224247031146467a3f5c42371e2a4b09
      flags: 0
    RecentlyUsedScenePath-5:
      value: 224247031146466f181a0330192253504645563f22213229
      flags: 0
    RecentlyUsedScenePath-6:
      value: 2242470311464655081942371e2a4b09
      flags: 0
    RecentlyUsedScenePath-7:
      value: 2242470311464676020a092e036c6f1c17191d3e6c0d272239215d15f0e53177c6e23be6a92f31352d1b
      flags: 0
    RecentlyUsedScenePath-8:
      value: 22424703114646680e0b0227036c6b0502180a232d2466607f67083debf42d
      flags: 0
    RecentlyUsedScenePath-9:
      value: 22424703114646680e0b0227036c7e2247590d24253c3f
      flags: 0
    vcSharedLogLevel:
      value: 0d5e400f0650
      flags: 0
  m_VCAutomaticAdd: 1
  m_VCDebugCom: 0
  m_VCDebugCmd: 0
  m_VCDebugOut: 0
  m_SemanticMergeMode: 2
  m_VCShowFailedCheckout: 1
  m_VCOverwriteFailedCheckoutAssets: 1
  m_VCProjectOverlayIcons: 1
  m_VCHierarchyOverlayIcons: 1
  m_VCOtherOverlayIcons: 1
  m_VCAllowAsyncUpdate: 1
