-a="/Users/maheshyaweerasinghe/AR/Library/PlayerScriptAssemblies/Assembly-CSharp.dll"
-a="/Users/maheshyaweerasinghe/AR/Library/PlayerScriptAssemblies/UnityEngine.XR.LegacyInputHelpers.dll"
-a="/Users/maheshyaweerasinghe/AR/Library/PlayerScriptAssemblies/UnityEngine.TestRunner.dll"
-a="/Users/maheshyaweerasinghe/AR/Library/PlayerScriptAssemblies/Unity.Timeline.dll"
-a="/Users/maheshyaweerasinghe/AR/Library/PlayerScriptAssemblies/Unity.TextMeshPro.dll"
-a="/Users/maheshyaweerasinghe/AR/Library/PlayerScriptAssemblies/Unity.XR.Management.dll"
-a="/Users/maheshyaweerasinghe/AR/Library/PlayerScriptAssemblies/Unity.Subsystem.Registration.dll"
-a="/Users/maheshyaweerasinghe/AR/Library/PlayerScriptAssemblies/UnityEngine.UI.dll"
-a="/Users/maheshyaweerasinghe/AR/Library/PlayerScriptAssemblies/UnityEngine.SpatialTracking.dll"
-a="/Users/maheshyaweerasinghe/AR/Library/PlayerScriptAssemblies/VuforiaScripts.dll"
-a="/Users/maheshyaweerasinghe/AR/Library/PackageCache/com.unity.nuget.newtonsoft-json@2.0.0/Runtime/AOT/Newtonsoft.Json.dll"
-a="/Users/maheshyaweerasinghe/AR/Library/PackageCache/com.ptc.vuforia.engine@32e44835f29d-1679417160000/Vuforia/Plugins/Managed/Runtime/Vuforia.Unity.Engine.dll"
-a="/Users/maheshyaweerasinghe/AR/Library/PackageCache/com.ptc.vuforia.engine@32e44835f29d-1679417160000/Vuforia/Plugins/Managed/UWP/Vuforia.Unity.Wrapper.dll"
-a="/Users/maheshyaweerasinghe/AR/Library/PackageCache/com.ptc.vuforia.engine@32e44835f29d-1679417160000/Vuforia/Plugins/Managed/Runtime/Vuforia.Unity.Wrapper.dll"
-a="/Users/maheshyaweerasinghe/AR/Library/PackageCache/com.unity.nuget.newtonsoft-json@2.0.0/Runtime/Portable/Newtonsoft.Json.dll"
-a="/Users/maheshyaweerasinghe/AR/Library/PackageCache/com.ptc.vuforia.engine@32e44835f29d-1679417160000/Vuforia/Plugins/Managed/iOS/Vuforia.Unity.Wrapper.dll"
-a="/Users/maheshyaweerasinghe/AR/Library/PackageCache/com.ptc.vuforia.engine@32e44835f29d-1679417160000/Vuforia/Plugins/Managed/iOS/Vuforia.Unity.Engine.dll"
-a="/Users/maheshyaweerasinghe/AR/Library/PackageCache/com.ptc.vuforia.engine@32e44835f29d-1679417160000/Vuforia/Plugins/Managed/UWP/Vuforia.Unity.Engine.dll"
-a="/Users/maheshyaweerasinghe/AR/Library/PackageCache/com.ptc.vuforia.engine@32e44835f29d-1679417160000/Vuforia/Plugins/Managed/Android/Vuforia.Unity.Engine.dll"
-a="/Users/maheshyaweerasinghe/AR/Library/PackageCache/com.unity.nuget.newtonsoft-json@2.0.0/Runtime/Newtonsoft.Json.dll"
-a="/Users/maheshyaweerasinghe/AR/Library/PackageCache/com.unity.ext.nunit@1.0.6/net35/unity-custom/nunit.framework.dll"
-a="/Users/maheshyaweerasinghe/AR/Library/PackageCache/com.ptc.vuforia.engine@32e44835f29d-1679417160000/Vuforia/Plugins/Managed/Android/Vuforia.Unity.Wrapper.dll"
-s="/Applications/Unity/Hub/Editor/2020.3.22f1/Unity.app/Contents/Managed/UnityEngine"
-s="/Users/maheshyaweerasinghe/AR/Library/PlayerScriptAssemblies"
-s="/Users/maheshyaweerasinghe/AR/Library/PackageCache/com.unity.nuget.newtonsoft-json@2.0.0/Runtime/AOT"
-s="/Users/maheshyaweerasinghe/AR/Library/PackageCache/com.ptc.vuforia.engine@32e44835f29d-1679417160000/Vuforia/Plugins/Managed/Lumin"
-s="/Users/maheshyaweerasinghe/AR/Library/PackageCache/com.ptc.vuforia.engine@32e44835f29d-1679417160000/Vuforia/Plugins/Managed/Runtime"
-s="/Users/maheshyaweerasinghe/AR/Library/PackageCache/com.ptc.vuforia.engine@32e44835f29d-1679417160000/Vuforia/Plugins/Managed/UWP"
-s="/Users/maheshyaweerasinghe/AR/Library/PackageCache/com.unity.nuget.newtonsoft-json@2.0.0/Runtime/Portable"
-s="/Users/maheshyaweerasinghe/AR/Library/PackageCache/com.ptc.vuforia.engine@32e44835f29d-1679417160000/Vuforia/Plugins/Managed/iOS"
-s="/Users/maheshyaweerasinghe/AR/Library/PackageCache/com.ptc.vuforia.engine@32e44835f29d-1679417160000/Vuforia/Plugins/Managed/Android"
-s="/Users/maheshyaweerasinghe/AR/Library/PackageCache/com.unity.nuget.newtonsoft-json@2.0.0/Runtime"
-s="/Users/maheshyaweerasinghe/AR/Library/PackageCache/com.unity.ext.nunit@1.0.6/net35/unity-custom"
-s="/Applications/Unity/Hub/Editor/2020.3.22f1/Unity.app/Contents/Managed/UnityEngine"
-s="/Applications/Unity/Hub/Editor/2020.3.22f1/Unity.app/Contents/MonoBleedingEdge/lib/mono/4.7.1-api"
-s="/Applications/Unity/Hub/Editor/2020.3.22f1/Unity.app/Contents/MonoBleedingEdge/lib/mono/4.7.1-api/Facades"
-o="/Users/maheshyaweerasinghe/AR/Library/BuildPlayerData/Player"
-rn="RuntimeInitializeOnLoads.json"
-tn="TypeDb-All.json"
