{
"instructions_readme": "1) Open Chrome, 2) go to chrome://tracing, 3) click Load, 4) navigate to this file.",
"traceEvents":[
{ "cat":"", "pid":1, "tid":0, "ts":0, "ph":"M", "name":"process_name", "args": { "name":"tundra" } }
,{ "pid":1, "tid":0, "ts":1652718875293280, "dur":318, "ph":"X", "name": "DriverCheckDagSignatures",  "args": { "durationMS":0, "detail":"" }}
,{ "pid":1, "tid":0, "ts":1652718875293598, "dur":1073, "ph":"X", "name": "DriverInitData",  "args": { "durationMS":1, "detail":"" }}
,{ "pid":1, "tid":0, "ts":1652718875295072, "dur":8, "ph":"X", "name": "Tundra",  "args": { "durationMS":0, "detail":"RemoveStaleOutputs" }}
,{ "pid":1, "tid":0, "ts":1652718875295081, "dur":1, "ph":"X", "name": "Tundra",  "args": { "durationMS":0, "detail":"PrepareNodes" }}
,{ "pid":1, "tid":0, "ts":1652718875295082, "dur":362, "ph":"X", "name": "Tundra",  "args": { "durationMS":0, "detail":"BuildQueueInit" }}
,{ "pid":1, "tid":0, "ts":1652718875298808, "dur":86, "ph":"X", "name": "JoinBuildThread",  "args": { "durationMS":0, "detail":"" }}
,{ "pid":1, "tid":0, "ts":1652718875298991, "dur":5, "ph":"X", "name": "JoinBuildThread",  "args": { "durationMS":0, "detail":"" }}
,{ "pid":1, "tid":0, "ts":1652718875299088, "dur":4, "ph":"X", "name": "JoinBuildThread",  "args": { "durationMS":0, "detail":"" }}
,{ "pid":1, "tid":0, "ts":1652718875299198, "dur":3, "ph":"X", "name": "JoinBuildThread",  "args": { "durationMS":0, "detail":"" }}
,{ "pid":1, "tid":0, "ts":1652718875299307, "dur":3, "ph":"X", "name": "JoinBuildThread",  "args": { "durationMS":0, "detail":"" }}
,{ "pid":1, "tid":0, "ts":1652718875299414, "dur":4, "ph":"X", "name": "JoinBuildThread",  "args": { "durationMS":0, "detail":"" }}
,{ "pid":1, "tid":0, "ts":1652718875299516, "dur":4, "ph":"X", "name": "JoinBuildThread",  "args": { "durationMS":0, "detail":"" }}
,{ "pid":1, "tid":0, "ts":1652718875299616, "dur":4, "ph":"X", "name": "JoinBuildThread",  "args": { "durationMS":0, "detail":"" }}
,{ "pid":1, "tid":0, "ts":1652718875299723, "dur":0, "ph":"X", "name": "SharedResourceDestroy",  "args": { "durationMS":0, "detail":"" }}
,{ "pid":1, "tid":0, "ts":1652718875299732, "dur":672, "ph":"X", "name": "Tundra",  "args": { "durationMS":1, "detail":"Write AllBuiltNodes" }}
,{ "pid":1, "tid":1, "ts":1652718875295382, "dur":112, "ph":"X", "name": "WaitingForWork", "cname":"thread_state_sleeping",  "args": { "durationMS":0, "detail":"" }}
,{ "pid":1, "tid":1, "ts":1652718875295549, "dur":2397, "ph":"X", "name": "CheckInputSignature",  "args": { "durationMS":2, "detail":"Il2Cpp /Users/maheshyaweerasinghe/AR/Library/Il2cppBuildCache/iOS/il2cppOutput/Data/Metadata/global-metadata.dat" }}
,{ "pid":1, "tid":1, "ts":1652718875298622, "dur":58, "ph":"X", "name": "CheckInputSignature",  "args": { "durationMS":0, "detail":"Copy Additional C++ File /Users/maheshyaweerasinghe/AR/Library/Il2cppBuildCache/iOS/il2cppOutput/UnityClassRegistration.cpp" }}
,{ "pid":1, "tid":1, "ts":1652718875298687, "dur":129, "ph":"X", "name": "WaitingForWork", "cname":"thread_state_sleeping",  "args": { "durationMS":0, "detail":"" }}
,{ "pid":1, "tid":1, "ts":1652718875298816, "dur":1, "ph":"X", "name": "Exiting",  "args": { "durationMS":0, "detail":"BuildLoop" }}
,{ "pid":1, "tid":2, "ts":1652718875295401, "dur":3456, "ph":"X", "name": "WaitingForWork", "cname":"thread_state_sleeping",  "args": { "durationMS":3, "detail":"" }}
,{ "pid":1, "tid":2, "ts":1652718875298857, "dur":1, "ph":"X", "name": "Exiting",  "args": { "durationMS":0, "detail":"BuildLoop" }}
,{ "pid":1, "tid":3, "ts":1652718875295386, "dur":3453, "ph":"X", "name": "WaitingForWork", "cname":"thread_state_sleeping",  "args": { "durationMS":3, "detail":"" }}
,{ "pid":1, "tid":3, "ts":1652718875298839, "dur":2, "ph":"X", "name": "Exiting",  "args": { "durationMS":0, "detail":"BuildLoop" }}
,{ "pid":1, "tid":4, "ts":1652718875295398, "dur":3438, "ph":"X", "name": "WaitingForWork", "cname":"thread_state_sleeping",  "args": { "durationMS":3, "detail":"" }}
,{ "pid":1, "tid":4, "ts":1652718875298838, "dur":2, "ph":"X", "name": "Exiting",  "args": { "durationMS":0, "detail":"BuildLoop" }}
,{ "pid":1, "tid":5, "ts":1652718875295416, "dur":3437, "ph":"X", "name": "WaitingForWork", "cname":"thread_state_sleeping",  "args": { "durationMS":3, "detail":"" }}
,{ "pid":1, "tid":5, "ts":1652718875298854, "dur":2, "ph":"X", "name": "Exiting",  "args": { "durationMS":0, "detail":"BuildLoop" }}
,{ "pid":1, "tid":6, "ts":1652718875295421, "dur":3420, "ph":"X", "name": "WaitingForWork", "cname":"thread_state_sleeping",  "args": { "durationMS":3, "detail":"" }}
,{ "pid":1, "tid":6, "ts":1652718875298841, "dur":1, "ph":"X", "name": "Exiting",  "args": { "durationMS":0, "detail":"BuildLoop" }}
,{ "pid":1, "tid":7, "ts":1652718875295439, "dur":3413, "ph":"X", "name": "WaitingForWork", "cname":"thread_state_sleeping",  "args": { "durationMS":3, "detail":"" }}
,{ "pid":1, "tid":7, "ts":1652718875298853, "dur":1, "ph":"X", "name": "Exiting",  "args": { "durationMS":0, "detail":"BuildLoop" }}
,{ "pid":1, "tid":8, "ts":1652718875295548, "dur":3112, "ph":"X", "name": "WaitingForWork", "cname":"thread_state_sleeping",  "args": { "durationMS":3, "detail":"" }}
,{ "pid":1, "tid":8, "ts":1652718875298660, "dur":122, "ph":"X", "name": "CheckInputSignature",  "args": { "durationMS":0, "detail":"Copy Additional C++ File /Users/maheshyaweerasinghe/AR/Library/Il2cppBuildCache/iOS/il2cppOutput/UnityICallRegistration.cpp" }}
,{ "pid":1, "tid":8, "ts":1652718875298789, "dur":0, "ph":"X", "name": "CheckInputSignature",  "args": { "durationMS":0, "detail":"all_tundra_nodes" }}
,{ "pid":1, "tid":8, "ts":1652718875298797, "dur":55, "ph":"X", "name": "WaitingForWork", "cname":"thread_state_sleeping",  "args": { "durationMS":0, "detail":"" }}
,{ "pid":1, "tid":8, "ts":1652718875298856, "dur":1, "ph":"X", "name": "Exiting",  "args": { "durationMS":0, "detail":"BuildLoop" }}

]
}
